{
"type": "FeatureCollection",
"name": "fengtaiLine",
"crs": { "type": "name", "properties": { "name": "urn:ogc:def:crs:OGC:1.3:CRS84" } },
"features": [
{ "type": "Feature", "properties": { "code": "110106", "name": "丰台区" }, "geometry": { "type": "MultiLineString", "coordinates": [ [ [ 116.167029, 39.888757 ], [ 116.168873, 39.887178 ], [ 116.16934, 39.888033 ], [ 116.169583, 39.88821 ], [ 116.169782, 39.888301 ], [ 116.169903, 39.888209 ], [ 116.170024, 39.887914 ], [ 116.170111, 39.886942 ], [ 116.170206, 39.886386 ], [ 116.170223, 39.88629 ], [ 116.170405, 39.885964 ], [ 116.170613, 39.885699 ], [ 116.170933, 39.88549 ], [ 116.171227, 39.885459 ], [ 116.171582, 39.885459 ], [ 116.172049, 39.885722 ], [ 116.172119, 39.885744 ], [ 116.172344, 39.885813 ], [ 116.172551, 39.885752 ], [ 116.173426, 39.885438 ], [ 116.176533, 39.8837 ], [ 116.177848, 39.883108 ], [ 116.179095, 39.882688 ], [ 116.180056, 39.882513 ], [ 116.180852, 39.882377 ], [ 116.18183, 39.88231 ], [ 116.182921, 39.882278 ], [ 116.18357, 39.882337 ], [ 116.184773, 39.882483 ], [ 116.186383, 39.882401 ], [ 116.188625, 39.881981 ], [ 116.190357, 39.881526 ], [ 116.191699, 39.881524 ], [ 116.192936, 39.881956 ], [ 116.195517, 39.883426 ], [ 116.19943, 39.883281 ], [ 116.204572, 39.879883 ], [ 116.20569, 39.878917 ], [ 116.207006, 39.877496 ], [ 116.207456, 39.876852 ], [ 116.207724, 39.876323 ], [ 116.207871, 39.875736 ], [ 116.208123, 39.87413 ], [ 116.209629, 39.874523 ], [ 116.21053, 39.875107 ], [ 116.210972, 39.875089 ], [ 116.210981, 39.874751 ], [ 116.212089, 39.874671 ], [ 116.211552, 39.876595 ], [ 116.211033, 39.87683 ], [ 116.210903, 39.87808 ], [ 116.213648, 39.877946 ], [ 116.214844, 39.876902 ], [ 116.219097, 39.876714 ], [ 116.219531, 39.881341 ], [ 116.22278, 39.881389 ], [ 116.222953, 39.883989 ], [ 116.227728, 39.883836 ], [ 116.227815, 39.885637 ], [ 116.228066, 39.885637 ], [ 116.228067, 39.887916 ], [ 116.22772, 39.887916 ], [ 116.22779, 39.889073 ], [ 116.227952, 39.889096 ], [ 116.228066, 39.889166 ], [ 116.229571, 39.889158 ], [ 116.22987, 39.889297 ], [ 116.23191, 39.88935 ], [ 116.232427, 39.890473 ], [ 116.233328, 39.889734 ], [ 116.233822, 39.890549 ], [ 116.233007, 39.89106 ], [ 116.233358, 39.891728 ], [ 116.237159, 39.892512 ], [ 116.237898, 39.893929 ], [ 116.238711, 39.894335 ], [ 116.238807, 39.896176 ], [ 116.256649, 39.896428 ], [ 116.256565, 39.896141 ], [ 116.256565, 39.895603 ], [ 116.256518, 39.895521 ], [ 116.256565, 39.895457 ], [ 116.256584, 39.895288 ], [ 116.256586, 39.895227 ], [ 116.25765, 39.895242 ], [ 116.25778, 39.895164 ], [ 116.258283, 39.895164 ], [ 116.258361, 39.896136 ], [ 116.258648, 39.896344 ], [ 116.258662, 39.89639 ], [ 116.258678, 39.896366 ], [ 116.259091, 39.896666 ], [ 116.259698, 39.896636 ], [ 116.259932, 39.89664 ], [ 116.260054, 39.896627 ], [ 116.260349, 39.896557 ], [ 116.26067, 39.89654 ], [ 116.261755, 39.896523 ], [ 116.26192, 39.896549 ], [ 116.262042, 39.896619 ], [ 116.262493, 39.896623 ], [ 116.262545, 39.896619 ], [ 116.262589, 39.896606 ], [ 116.262641, 39.896532 ], [ 116.262719, 39.896515 ], [ 116.263726, 39.896519 ], [ 116.263986, 39.896585 ], [ 116.264125, 39.896585 ], [ 116.264759, 39.896494 ], [ 116.266209, 39.896256 ], [ 116.266365, 39.896242 ], [ 116.266877, 39.896269 ], [ 116.267242, 39.89626 ], [ 116.269847, 39.896261 ], [ 116.271515, 39.896267 ], [ 116.271679, 39.896276 ], [ 116.271749, 39.89628 ], [ 116.271801, 39.896297 ], [ 116.271906, 39.896401 ], [ 116.271949, 39.896423 ], [ 116.272053, 39.896436 ], [ 116.272584, 39.896441 ], [ 116.272663, 39.896442 ], [ 116.272735, 39.896442 ], [ 116.276118, 39.89647 ], [ 116.277994, 39.896523 ], [ 116.281843, 39.896535 ], [ 116.28253, 39.896662 ], [ 116.282895, 39.896632 ], [ 116.283164, 39.896615 ], [ 116.283468, 39.896641 ], [ 116.283824, 39.896681 ], [ 116.287709, 39.896685 ], [ 116.291221, 39.896672 ], [ 116.29375, 39.896666 ], [ 116.294202, 39.896606 ], [ 116.294976, 39.89649 ], [ 116.295011, 39.893139 ], [ 116.295001, 39.886737 ], [ 116.295061, 39.886723 ], [ 116.2951, 39.886729 ], [ 116.29634, 39.886643 ], [ 116.297179, 39.887286 ], [ 116.297239, 39.887337 ], [ 116.297325, 39.887398 ], [ 116.297579, 39.887592 ], [ 116.297624, 39.887615 ], [ 116.297648, 39.887645 ], [ 116.29815, 39.888067 ], [ 116.299053, 39.888722 ], [ 116.299216, 39.889524 ], [ 116.299169, 39.889546 ], [ 116.299227, 39.889572 ], [ 116.299922, 39.889587 ], [ 116.300192, 39.889596 ], [ 116.300861, 39.889614 ], [ 116.301174, 39.889636 ], [ 116.301566, 39.889676 ], [ 116.302105, 39.889724 ], [ 116.30274, 39.889773 ], [ 116.302743, 39.889739 ], [ 116.302755, 39.88964 ], [ 116.302826, 39.889031 ], [ 116.303444, 39.889045 ], [ 116.303444, 39.890057 ], [ 116.302887, 39.890069 ], [ 116.302592, 39.890897 ], [ 116.304218, 39.890891 ], [ 116.304792, 39.890892 ], [ 116.306566, 39.890891 ], [ 116.306575, 39.891794 ], [ 116.307219, 39.891803 ], [ 116.307245, 39.892415 ], [ 116.306314, 39.89244 ], [ 116.304497, 39.892484 ], [ 116.304497, 39.892593 ], [ 116.305993, 39.89339 ], [ 116.306932, 39.894446 ], [ 116.307106, 39.894585 ], [ 116.307323, 39.894668 ], [ 116.309933, 39.895198 ], [ 116.310154, 39.895259 ], [ 116.310238, 39.8953 ], [ 116.310393, 39.895307 ], [ 116.31047, 39.895346 ], [ 116.311133, 39.895529 ], [ 116.31095, 39.895829 ], [ 116.312411, 39.895818 ], [ 116.31242, 39.896331 ], [ 116.31309, 39.896731 ], [ 116.313194, 39.896779 ], [ 116.313946, 39.896796 ], [ 116.314021, 39.896779 ], [ 116.316922, 39.896783 ], [ 116.317027, 39.896819 ], [ 116.317122, 39.896783 ], [ 116.317649, 39.896783 ], [ 116.317723, 39.89682 ], [ 116.317836, 39.896784 ], [ 116.322954, 39.89679 ], [ 116.323286, 39.896733 ], [ 116.323814, 39.896791 ], [ 116.325146, 39.896792 ], [ 116.325383, 39.896793 ], [ 116.325809, 39.896793 ], [ 116.325975, 39.893429 ], [ 116.326084, 39.893376 ], [ 116.326014, 39.893322 ], [ 116.325982, 39.893291 ], [ 116.325786, 39.892708 ], [ 116.325809, 39.892657 ], [ 116.325756, 39.892618 ], [ 116.325712, 39.892318 ], [ 116.325756, 39.891367 ], [ 116.325825, 39.891116 ], [ 116.326286, 39.890474 ], [ 116.326404, 39.890233 ], [ 116.326514, 39.890051 ], [ 116.326598, 39.890012 ], [ 116.326595, 39.889986 ], [ 116.326597, 39.8899 ], [ 116.326616, 39.889863 ], [ 116.326686, 39.889733 ], [ 116.325451, 39.889783 ], [ 116.324189, 39.88968 ], [ 116.324318, 39.888242 ], [ 116.324424, 39.887055 ], [ 116.323449, 39.887053 ], [ 116.323423, 39.884318 ], [ 116.32264, 39.884304 ], [ 116.322644, 39.882889 ], [ 116.322632, 39.882854 ], [ 116.322644, 39.882828 ], [ 116.322647, 39.882141 ], [ 116.322562, 39.882104 ], [ 116.322618, 39.882046 ], [ 116.322647, 39.881983 ], [ 116.322648, 39.881596 ], [ 116.321691, 39.881594 ], [ 116.321534, 39.877756 ], [ 116.321343, 39.874996 ], [ 116.323465, 39.875984 ], [ 116.324875, 39.876243 ], [ 116.324919, 39.876258 ], [ 116.324952, 39.876275 ], [ 116.326363, 39.876854 ], [ 116.326632, 39.876854 ], [ 116.327694, 39.876444 ], [ 116.329129, 39.875943 ], [ 116.330156, 39.875737 ], [ 116.331452, 39.875518 ], [ 116.331628, 39.875486 ], [ 116.331777, 39.875459 ], [ 116.333018, 39.875234 ], [ 116.334532, 39.875133 ], [ 116.335271, 39.875187 ], [ 116.335506, 39.875248 ], [ 116.335776, 39.875339 ], [ 116.336289, 39.875562 ], [ 116.337325, 39.875776 ], [ 116.337594, 39.875833 ], [ 116.337821, 39.875851 ], [ 116.340936, 39.876087 ], [ 116.341571, 39.876154 ], [ 116.341875, 39.876163 ], [ 116.342232, 39.876133 ], [ 116.342545, 39.876064 ], [ 116.342919, 39.875922 ], [ 116.34325, 39.875762 ], [ 116.343554, 39.875576 ], [ 116.343772, 39.875407 ], [ 116.34392, 39.875255 ], [ 116.344007, 39.875078 ], [ 116.344094, 39.874179 ], [ 116.344268, 39.874179 ], [ 116.344279, 39.873824 ], [ 116.344253, 39.873792 ], [ 116.344281, 39.873763 ], [ 116.344285, 39.87365 ], [ 116.346229, 39.873629 ], [ 116.346259, 39.873629 ], [ 116.346292, 39.873628 ], [ 116.349479, 39.873594 ], [ 116.349043, 39.870013 ], [ 116.349182, 39.869757 ], [ 116.349383, 39.86951 ], [ 116.349635, 39.86925 ], [ 116.350035, 39.868964 ], [ 116.350574, 39.868696 ], [ 116.350992, 39.868988 ], [ 116.351853, 39.868989 ], [ 116.355741, 39.869313 ], [ 116.360595, 39.869694 ], [ 116.364979, 39.869988 ], [ 116.369475, 39.870329 ], [ 116.373874, 39.870626 ], [ 116.380586, 39.871146 ], [ 116.38069, 39.869614 ], [ 116.380516, 39.869336 ], [ 116.380559, 39.867942 ], [ 116.379967, 39.867958 ], [ 116.379691, 39.867965 ], [ 116.379603, 39.867944 ], [ 116.379603, 39.867789 ], [ 116.379246, 39.867753 ], [ 116.379213, 39.867742 ], [ 116.379171, 39.867745 ], [ 116.378621, 39.867689 ], [ 116.378646, 39.867463 ], [ 116.378716, 39.867268 ], [ 116.378734, 39.867025 ], [ 116.377856, 39.866928 ], [ 116.377282, 39.866767 ], [ 116.377134, 39.866693 ], [ 116.37736, 39.866693 ], [ 116.377664, 39.86668 ], [ 116.377995, 39.86659 ], [ 116.378142, 39.866551 ], [ 116.378551, 39.866434 ], [ 116.379309, 39.866293 ], [ 116.379361, 39.866259 ], [ 116.379402, 39.866276 ], [ 116.379803, 39.866201 ], [ 116.38064, 39.86606 ], [ 116.380696, 39.866027 ], [ 116.380681, 39.866054 ], [ 116.381602, 39.866017 ], [ 116.382567, 39.866065 ], [ 116.383383, 39.866231 ], [ 116.384192, 39.866531 ], [ 116.385269, 39.867066 ], [ 116.385339, 39.866776 ], [ 116.387894, 39.867377 ], [ 116.387911, 39.866513 ], [ 116.387894, 39.866279 ], [ 116.387867, 39.866044 ], [ 116.387815, 39.865775 ], [ 116.387702, 39.865393 ], [ 116.391265, 39.865444 ], [ 116.391289, 39.863811 ], [ 116.391302, 39.863694 ], [ 116.391317, 39.863694 ], [ 116.392264, 39.863695 ], [ 116.392976, 39.863739 ], [ 116.392993, 39.862307 ], [ 116.393731, 39.862294 ], [ 116.394279, 39.862286 ], [ 116.394279, 39.862585 ], [ 116.394279, 39.862733 ], [ 116.394565, 39.862733 ], [ 116.394956, 39.862733 ], [ 116.394948, 39.862286 ], [ 116.394982, 39.862121 ], [ 116.395156, 39.861796 ], [ 116.39528, 39.861581 ], [ 116.395364, 39.861436 ], [ 116.395451, 39.861106 ], [ 116.395486, 39.860047 ], [ 116.3955, 39.858904 ], [ 116.395547, 39.858854 ], [ 116.395501, 39.858812 ], [ 116.395503, 39.858679 ], [ 116.399515, 39.858625 ], [ 116.399472, 39.859723 ], [ 116.400518, 39.859716 ], [ 116.40061, 39.859681 ], [ 116.40069, 39.859714 ], [ 116.401458, 39.859709 ], [ 116.401498, 39.859709 ], [ 116.401532, 39.859709 ], [ 116.403006, 39.859698 ], [ 116.403645, 39.859693 ], [ 116.403686, 39.859664 ], [ 116.404755, 39.859735 ], [ 116.404848, 39.859765 ], [ 116.406713, 39.859949 ], [ 116.406767, 39.859945 ], [ 116.406861, 39.859964 ], [ 116.408224, 39.858913 ], [ 116.410619, 39.858874 ], [ 116.412451, 39.858935 ], [ 116.412449, 39.859043 ], [ 116.412415, 39.859087 ], [ 116.412447, 39.85914 ], [ 116.412433, 39.860107 ], [ 116.413406, 39.860126 ], [ 116.413469, 39.860086 ], [ 116.413523, 39.860128 ], [ 116.414143, 39.860141 ], [ 116.413961, 39.864035 ], [ 116.414369, 39.864034 ], [ 116.414404, 39.863709 ], [ 116.415081, 39.863678 ], [ 116.415106, 39.863466 ], [ 116.415818, 39.8635 ], [ 116.415896, 39.863644 ], [ 116.415827, 39.865766 ], [ 116.416677, 39.86574 ], [ 116.416755, 39.866886 ], [ 116.415688, 39.866851 ], [ 116.415679, 39.867077 ], [ 116.415228, 39.867064 ], [ 116.415194, 39.868644 ], [ 116.415133, 39.868761 ], [ 116.415046, 39.868835 ], [ 116.415046, 39.869334 ], [ 116.415827, 39.86936 ], [ 116.415828, 39.869824 ], [ 116.413667, 39.869825 ], [ 116.413658, 39.87114 ], [ 116.416903, 39.871187 ], [ 116.416869, 39.871473 ], [ 116.419298, 39.87175 ], [ 116.419871, 39.871828 ], [ 116.420469, 39.871949 ], [ 116.421414, 39.872175 ], [ 116.422022, 39.8724 ], [ 116.422794, 39.872699 ], [ 116.42321, 39.872829 ], [ 116.425109, 39.872827 ], [ 116.42569, 39.872805 ], [ 116.426947, 39.872696 ], [ 116.435209, 39.872176 ], [ 116.44085, 39.871943 ], [ 116.442574, 39.871879 ], [ 116.442791, 39.871887 ], [ 116.44299, 39.871917 ], [ 116.443198, 39.871995 ], [ 116.443363, 39.872104 ], [ 116.44351, 39.872312 ], [ 116.443588, 39.872563 ], [ 116.44364, 39.872846 ], [ 116.444047, 39.872827 ], [ 116.444931, 39.872617 ], [ 116.444861, 39.871607 ], [ 116.444852, 39.871537 ], [ 116.444783, 39.870539 ], [ 116.443952, 39.87064 ], [ 116.443276, 39.870719 ], [ 116.442981, 39.870359 ], [ 116.442842, 39.869635 ], [ 116.44299, 39.869413 ], [ 116.443024, 39.869005 ], [ 116.44292, 39.86789 ], [ 116.442963, 39.866088 ], [ 116.443975, 39.866087 ], [ 116.444178, 39.866087 ], [ 116.444254, 39.866086 ], [ 116.444237, 39.865444 ], [ 116.444167, 39.865444 ], [ 116.444193, 39.864793 ], [ 116.444258, 39.864757 ], [ 116.444277, 39.86473 ], [ 116.444309, 39.864729 ], [ 116.445103, 39.864292 ], [ 116.445129, 39.862612 ], [ 116.446358, 39.860861 ], [ 116.446601, 39.862784 ], [ 116.4479, 39.862781 ], [ 116.448186, 39.86364 ], [ 116.449563, 39.86303 ], [ 116.45023, 39.862721 ], [ 116.450949, 39.862299 ], [ 116.451538, 39.861811 ], [ 116.45225, 39.861197 ], [ 116.452306, 39.861154 ], [ 116.452672, 39.860841 ], [ 116.453356, 39.860128 ], [ 116.453676, 39.859741 ], [ 116.454222, 39.85938 ], [ 116.455555, 39.859338 ], [ 116.455555, 39.859642 ], [ 116.456066, 39.859684 ], [ 116.456066, 39.861221 ], [ 116.460558, 39.857769 ], [ 116.460801, 39.858047 ], [ 116.460792, 39.859023 ], [ 116.461562, 39.858991 ], [ 116.461522, 39.858235 ], [ 116.461521, 39.858192 ], [ 116.461518, 39.858175 ], [ 116.461493, 39.857707 ], [ 116.461794, 39.857461 ], [ 116.461794, 39.857424 ], [ 116.461886, 39.857387 ], [ 116.463073, 39.85642 ], [ 116.463105, 39.8564 ], [ 116.463136, 39.856368 ], [ 116.463311, 39.856227 ], [ 116.464592, 39.85625 ], [ 116.464514, 39.856436 ], [ 116.464544, 39.856477 ], [ 116.464612, 39.856484 ], [ 116.464748, 39.856549 ], [ 116.467093, 39.856504 ], [ 116.467794, 39.856008 ], [ 116.467715, 39.852592 ], [ 116.465682, 39.853417 ], [ 116.465093, 39.851717 ], [ 116.463665, 39.851742 ], [ 116.463665, 39.850696 ], [ 116.463085, 39.850684 ], [ 116.463093, 39.850233 ], [ 116.462384, 39.850773 ], [ 116.461691, 39.850809 ], [ 116.460964, 39.850845 ], [ 116.460869, 39.849365 ], [ 116.460358, 39.849379 ], [ 116.460306, 39.848616 ], [ 116.458809, 39.848619 ], [ 116.458113, 39.849072 ], [ 116.458089, 39.849084 ], [ 116.458063, 39.849104 ], [ 116.458012, 39.849137 ], [ 116.45806, 39.850563 ], [ 116.458012, 39.850627 ], [ 116.457961, 39.850694 ], [ 116.456532, 39.850629 ], [ 116.456506, 39.850151 ], [ 116.456134, 39.850144 ], [ 116.456134, 39.850582 ], [ 116.45506, 39.850593 ], [ 116.453883, 39.851081 ], [ 116.453632, 39.851586 ], [ 116.453424, 39.851594 ], [ 116.453433, 39.851963 ], [ 116.451138, 39.852015 ], [ 116.451094, 39.851534 ], [ 116.451753, 39.851433 ], [ 116.451605, 39.850569 ], [ 116.451813, 39.850495 ], [ 116.451804, 39.850087 ], [ 116.450228, 39.849999 ], [ 116.450228, 39.849222 ], [ 116.450488, 39.849217 ], [ 116.450488, 39.848696 ], [ 116.44931, 39.848703 ], [ 116.449353, 39.848359 ], [ 116.448513, 39.848352 ], [ 116.448513, 39.848253 ], [ 116.448054, 39.848253 ], [ 116.448037, 39.848349 ], [ 116.446341, 39.848337 ], [ 116.446326, 39.848336 ], [ 116.446311, 39.848337 ], [ 116.446152, 39.848336 ], [ 116.446128, 39.848336 ], [ 116.446107, 39.848336 ], [ 116.445976, 39.848335 ], [ 116.446703, 39.844262 ], [ 116.444043, 39.844284 ], [ 116.443809, 39.842492 ], [ 116.443029, 39.842493 ], [ 116.443047, 39.842953 ], [ 116.443584, 39.842952 ], [ 116.443549, 39.843733 ], [ 116.442319, 39.843679 ], [ 116.442326, 39.84173 ], [ 116.442269, 39.841627 ], [ 116.442326, 39.841521 ], [ 116.442328, 39.841266 ], [ 116.441868, 39.841284 ], [ 116.441851, 39.840927 ], [ 116.441314, 39.840946 ], [ 116.440586, 39.839649 ], [ 116.43874, 39.839699 ], [ 116.438731, 39.839352 ], [ 116.438558, 39.839352 ], [ 116.438524, 39.839882 ], [ 116.438307, 39.840268 ], [ 116.437354, 39.840721 ], [ 116.437475, 39.840947 ], [ 116.43673, 39.841334 ], [ 116.436401, 39.840753 ], [ 116.436323, 39.840631 ], [ 116.436426, 39.840405 ], [ 116.435967, 39.839677 ], [ 116.436791, 39.839233 ], [ 116.436114, 39.838036 ], [ 116.435204, 39.83815 ], [ 116.43497, 39.837564 ], [ 116.434034, 39.837778 ], [ 116.433677, 39.83716 ], [ 116.433634, 39.837087 ], [ 116.433599, 39.837129 ], [ 116.433237, 39.837206 ], [ 116.432629, 39.834663 ], [ 116.432092, 39.834828 ], [ 116.432084, 39.834369 ], [ 116.432084, 39.834314 ], [ 116.432082, 39.834284 ], [ 116.432057, 39.832931 ], [ 116.431303, 39.832919 ], [ 116.431225, 39.832685 ], [ 116.425182, 39.832721 ], [ 116.425216, 39.831896 ], [ 116.425225, 39.830051 ], [ 116.42287, 39.829897 ], [ 116.422805, 39.829897 ], [ 116.422771, 39.829892 ], [ 116.422741, 39.829889 ], [ 116.42101, 39.829776 ], [ 116.421139, 39.826968 ], [ 116.420081, 39.826617 ], [ 116.416644, 39.828865 ], [ 116.416628, 39.8289 ], [ 116.416569, 39.828914 ], [ 116.415778, 39.829431 ], [ 116.414433, 39.824279 ], [ 116.418432, 39.822911 ], [ 116.418024, 39.820579 ], [ 116.418021, 39.820561 ], [ 116.418019, 39.820549 ], [ 116.417998, 39.820432 ], [ 116.419308, 39.820119 ], [ 116.419733, 39.818851 ], [ 116.418926, 39.818691 ], [ 116.41975, 39.81537 ], [ 116.417277, 39.814985 ], [ 116.416514, 39.815163 ], [ 116.416245, 39.814885 ], [ 116.413738, 39.816154 ], [ 116.413147, 39.815268 ], [ 116.412575, 39.815459 ], [ 116.412939, 39.816466 ], [ 116.410162, 39.817057 ], [ 116.410005, 39.811336 ], [ 116.411116, 39.810937 ], [ 116.4128, 39.811661 ], [ 116.415273, 39.812529 ], [ 116.415293, 39.812478 ], [ 116.4153, 39.812422 ], [ 116.415351, 39.81233 ], [ 116.415533, 39.811869 ], [ 116.416306, 39.811882 ], [ 116.41778, 39.810123 ], [ 116.418214, 39.809363 ], [ 116.41843, 39.808369 ], [ 116.419732, 39.808386 ], [ 116.419359, 39.809619 ], [ 116.419354, 39.809657 ], [ 116.419334, 39.809701 ], [ 116.419289, 39.809849 ], [ 116.420122, 39.810239 ], [ 116.420981, 39.810434 ], [ 116.421649, 39.810512 ], [ 116.421805, 39.810143 ], [ 116.422447, 39.810433 ], [ 116.424233, 39.808136 ], [ 116.424233, 39.806695 ], [ 116.425716, 39.806659 ], [ 116.425716, 39.805357 ], [ 116.424086, 39.805371 ], [ 116.424103, 39.803557 ], [ 116.424165, 39.803589 ], [ 116.424216, 39.803557 ], [ 116.425924, 39.803567 ], [ 116.425973, 39.803602 ], [ 116.426036, 39.803568 ], [ 116.429392, 39.803587 ], [ 116.429382, 39.79491 ], [ 116.429278, 39.794094 ], [ 116.427422, 39.793935 ], [ 116.42744, 39.794769 ], [ 116.42104, 39.794135 ], [ 116.421374, 39.79208 ], [ 116.421352, 39.791979 ], [ 116.421432, 39.791618 ], [ 116.421461, 39.791542 ], [ 116.421776, 39.789603 ], [ 116.420597, 39.789534 ], [ 116.420631, 39.787915 ], [ 116.420588, 39.787737 ], [ 116.420501, 39.78759 ], [ 116.420397, 39.787481 ], [ 116.420249, 39.787438 ], [ 116.404936, 39.787001 ], [ 116.404898, 39.78697 ], [ 116.40484, 39.786999 ], [ 116.396023, 39.786743 ], [ 116.396066, 39.784507 ], [ 116.397082, 39.784369 ], [ 116.397212, 39.784321 ], [ 116.397369, 39.784183 ], [ 116.397456, 39.783918 ], [ 116.397643, 39.782771 ], [ 116.397611, 39.782674 ], [ 116.397664, 39.782646 ], [ 116.397898, 39.78107 ], [ 116.398037, 39.779078 ], [ 116.398895, 39.765856 ], [ 116.391894, 39.765271 ], [ 116.390654, 39.780458 ], [ 116.385553, 39.780207 ], [ 116.385614, 39.778848 ], [ 116.382894, 39.779097 ], [ 116.382676, 39.779427 ], [ 116.382398, 39.779236 ], [ 116.379217, 39.779397 ], [ 116.378488, 39.785642 ], [ 116.370202, 39.785532 ], [ 116.370211, 39.784446 ], [ 116.367576, 39.784968 ], [ 116.367385, 39.787789 ], [ 116.367333, 39.789808 ], [ 116.367272, 39.790363 ], [ 116.367159, 39.790723 ], [ 116.367118, 39.790741 ], [ 116.367103, 39.79076 ], [ 116.366994, 39.790831 ], [ 116.366612, 39.790861 ], [ 116.365751, 39.79415 ], [ 116.368186, 39.794818 ], [ 116.367456, 39.797977 ], [ 116.367437, 39.79806 ], [ 116.367431, 39.798088 ], [ 116.367426, 39.798107 ], [ 116.367413, 39.798166 ], [ 116.36703, 39.799821 ], [ 116.356828, 39.800469 ], [ 116.355707, 39.805662 ], [ 116.353828, 39.805689 ], [ 116.352128, 39.805776 ], [ 116.352087, 39.805813 ], [ 116.352031, 39.80578 ], [ 116.349035, 39.805933 ], [ 116.346259, 39.806197 ], [ 116.346756, 39.807244 ], [ 116.341753, 39.80759 ], [ 116.340839, 39.803191 ], [ 116.340134, 39.802157 ], [ 116.328232, 39.801423 ], [ 116.326831, 39.798381 ], [ 116.322881, 39.798391 ], [ 116.323044, 39.79668 ], [ 116.323013, 39.796606 ], [ 116.323072, 39.796386 ], [ 116.32302, 39.795891 ], [ 116.322611, 39.794293 ], [ 116.322062, 39.792959 ], [ 116.321662, 39.791956 ], [ 116.321619, 39.791487 ], [ 116.321782, 39.783631 ], [ 116.317972, 39.783441 ], [ 116.316232, 39.780539 ], [ 116.31069, 39.772056 ], [ 116.310873, 39.769973 ], [ 116.307054, 39.770079 ], [ 116.304889, 39.772411 ], [ 116.303037, 39.772777 ], [ 116.301551, 39.774936 ], [ 116.30309, 39.775651 ], [ 116.301977, 39.777811 ], [ 116.300185, 39.777357 ], [ 116.298699, 39.780284 ], [ 116.299169, 39.78111 ], [ 116.297965, 39.784116 ], [ 116.297953, 39.784152 ], [ 116.297938, 39.784185 ], [ 116.296596, 39.787539 ], [ 116.295197, 39.790953 ], [ 116.295996, 39.791293 ], [ 116.29571, 39.791805 ], [ 116.292745, 39.790863 ], [ 116.291155, 39.793279 ], [ 116.296084, 39.795564 ], [ 116.294824, 39.797125 ], [ 116.290116, 39.796098 ], [ 116.290103, 39.796093 ], [ 116.290088, 39.796091 ], [ 116.289182, 39.795894 ], [ 116.287244, 39.799108 ], [ 116.279815, 39.797564 ], [ 116.277226, 39.797024 ], [ 116.27574, 39.796823 ], [ 116.274229, 39.796934 ], [ 116.271962, 39.795865 ], [ 116.270337, 39.795204 ], [ 116.267619, 39.794444 ], [ 116.266239, 39.79407 ], [ 116.265041, 39.793136 ], [ 116.264502, 39.792906 ], [ 116.262193, 39.792775 ], [ 116.261672, 39.793799 ], [ 116.261586, 39.794194 ], [ 116.261724, 39.795214 ], [ 116.261681, 39.795418 ], [ 116.2609, 39.795552 ], [ 116.260605, 39.796147 ], [ 116.260527, 39.796841 ], [ 116.260405, 39.79695 ], [ 116.259833, 39.797037 ], [ 116.259581, 39.797558 ], [ 116.259294, 39.797627 ], [ 116.256804, 39.797332 ], [ 116.256569, 39.797037 ], [ 116.256864, 39.795908 ], [ 116.256864, 39.794957 ], [ 116.256395, 39.794128 ], [ 116.254616, 39.793477 ], [ 116.251527, 39.793061 ], [ 116.251944, 39.794723 ], [ 116.2523, 39.796381 ], [ 116.252187, 39.797866 ], [ 116.251831, 39.799111 ], [ 116.25112, 39.800713 ], [ 116.250938, 39.801425 ], [ 116.250999, 39.801959 ], [ 116.251355, 39.802671 ], [ 116.253073, 39.804745 ], [ 116.25349, 39.80587 ], [ 116.253602, 39.807237 ], [ 116.253429, 39.809312 ], [ 116.252892, 39.811447 ], [ 116.252545, 39.812216 ], [ 116.251651, 39.813284 ], [ 116.249222, 39.814769 ], [ 116.2478, 39.815537 ], [ 116.246854, 39.81631 ], [ 116.244833, 39.817852 ], [ 116.244304, 39.818564 ], [ 116.24401, 39.819571 ], [ 116.243828, 39.821234 ], [ 116.24336, 39.822775 ], [ 116.243178, 39.82396 ], [ 116.243004, 39.825149 ], [ 116.242588, 39.825801 ], [ 116.24134, 39.826513 ], [ 116.239622, 39.82687 ], [ 116.231014, 39.827115 ], [ 116.228908, 39.82736 ], [ 116.228301, 39.827196 ], [ 116.228622, 39.825654 ], [ 116.227209, 39.825048 ], [ 116.214126, 39.824699 ], [ 116.214022, 39.821917 ], [ 116.214169, 39.819629 ], [ 116.214455, 39.818978 ], [ 116.216759, 39.816909 ], [ 116.215745, 39.815773 ], [ 116.214489, 39.814802 ], [ 116.213969, 39.814195 ], [ 116.213397, 39.813706 ], [ 116.211647, 39.812632 ], [ 116.210859, 39.81193 ], [ 116.210435, 39.8116 ], [ 116.209725, 39.81138 ], [ 116.208677, 39.811382 ], [ 116.208157, 39.811365 ], [ 116.207742, 39.811196 ], [ 116.207464, 39.811049 ], [ 116.207421, 39.810819 ], [ 116.20807, 39.806729 ], [ 116.208053, 39.806352 ], [ 116.207741, 39.806101 ], [ 116.207169, 39.805785 ], [ 116.206424, 39.805543 ], [ 116.206494, 39.805386 ], [ 116.206624, 39.804874 ], [ 116.206641, 39.804444 ], [ 116.206658, 39.804149 ], [ 116.206701, 39.803706 ], [ 116.206667, 39.80342 ], [ 116.206563, 39.803155 ], [ 116.206346, 39.803004 ], [ 116.206052, 39.802948 ], [ 116.205653, 39.80284 ], [ 116.205194, 39.802728 ], [ 116.204831, 39.802633 ], [ 116.204597, 39.802486 ], [ 116.204398, 39.80239 ], [ 116.204026, 39.802239 ], [ 116.203558, 39.802014 ], [ 116.203402, 39.801854 ], [ 116.203359, 39.801597 ], [ 116.203289, 39.801289 ], [ 116.203263, 39.800877 ], [ 116.203159, 39.80063 ], [ 116.203125, 39.800478 ], [ 116.202848, 39.800253 ], [ 116.202519, 39.800071 ], [ 116.202164, 39.799894 ], [ 116.201852, 39.79966 ], [ 116.201731, 39.799391 ], [ 116.201739, 39.799074 ], [ 116.201678, 39.798579 ], [ 116.201505, 39.797555 ], [ 116.201427, 39.79683 ], [ 116.201436, 39.796362 ], [ 116.201436, 39.795997 ], [ 116.201531, 39.795116 ], [ 116.201617, 39.793622 ], [ 116.201686, 39.792463 ], [ 116.201859, 39.788261 ], [ 116.201702, 39.785314 ], [ 116.201261, 39.782012 ], [ 116.200386, 39.77815 ], [ 116.197883, 39.778297 ], [ 116.197858, 39.778343 ], [ 116.197847, 39.778299 ], [ 116.194446, 39.778499 ], [ 116.194403, 39.780587 ], [ 116.193616, 39.780475 ], [ 116.19288, 39.780351 ], [ 116.191711, 39.780262 ], [ 116.190732, 39.780389 ], [ 116.188006, 39.781783 ], [ 116.186621, 39.780232 ], [ 116.183357, 39.780199 ], [ 116.183851, 39.781383 ], [ 116.182336, 39.781507 ], [ 116.182994, 39.783715 ], [ 116.182864, 39.783881 ], [ 116.182587, 39.78392 ], [ 116.181116, 39.783684 ], [ 116.180233, 39.784073 ], [ 116.179471, 39.784377 ], [ 116.178675, 39.784505 ], [ 116.177515, 39.784568 ], [ 116.17323, 39.784485 ], [ 116.170945, 39.784394 ], [ 116.169716, 39.784274 ], [ 116.16911, 39.783906 ], [ 116.168616, 39.783143 ], [ 116.167352, 39.778549 ], [ 116.166123, 39.775035 ], [ 116.163345, 39.770296 ], [ 116.163313, 39.770288 ], [ 116.163321, 39.770255 ], [ 116.162702, 39.769199 ], [ 116.161274, 39.769648 ], [ 116.159923, 39.767489 ], [ 116.157862, 39.768504 ], [ 116.156356, 39.766831 ], [ 116.156249, 39.766826 ], [ 116.156212, 39.766826 ], [ 116.156176, 39.766823 ], [ 116.150546, 39.766559 ], [ 116.150667, 39.767539 ], [ 116.147818, 39.767383 ], [ 116.147628, 39.768191 ], [ 116.147204, 39.768608 ], [ 116.146719, 39.768652 ], [ 116.146389, 39.768531 ], [ 116.146312, 39.767754 ], [ 116.147134, 39.767471 ], [ 116.147169, 39.765752 ], [ 116.144692, 39.765695 ], [ 116.144137, 39.764836 ], [ 116.143436, 39.764377 ], [ 116.142951, 39.764473 ], [ 116.142033, 39.764778 ], [ 116.140777, 39.765639 ], [ 116.139556, 39.764352 ], [ 116.138178, 39.76543 ], [ 116.13888, 39.766806 ], [ 116.137806, 39.767297 ], [ 116.136844, 39.765822 ], [ 116.136273, 39.765715 ], [ 116.134228, 39.766472 ], [ 116.133431, 39.76633 ], [ 116.132789, 39.765862 ], [ 116.131819, 39.764713 ], [ 116.130268, 39.763668 ], [ 116.129159, 39.763201 ], [ 116.128509, 39.763127 ], [ 116.128474, 39.762411 ], [ 116.12434, 39.761729 ], [ 116.123656, 39.765545 ], [ 116.122251, 39.765403 ], [ 116.123005, 39.761587 ], [ 116.121462, 39.761623 ], [ 116.120994, 39.765369 ], [ 116.119408, 39.765444 ], [ 116.118905, 39.76616 ], [ 116.118905, 39.76692 ], [ 116.119443, 39.766989 ], [ 116.119339, 39.768322 ], [ 116.118767, 39.768682 ], [ 116.118333, 39.769151 ], [ 116.1179, 39.769981 ], [ 116.117934, 39.770558 ], [ 116.118299, 39.771061 ], [ 116.119053, 39.771313 ], [ 116.119556, 39.771312 ], [ 116.119842, 39.771026 ], [ 116.12046, 39.769758 ], [ 116.120492, 39.769693 ], [ 116.120528, 39.769746 ], [ 116.120497, 39.769758 ], [ 116.120648, 39.771568 ], [ 116.120709, 39.772466 ], [ 116.120458, 39.773222 ], [ 116.120163, 39.773291 ], [ 116.119868, 39.773404 ], [ 116.119695, 39.773114 ], [ 116.119807, 39.771855 ], [ 116.117831, 39.771782 ], [ 116.117397, 39.772108 ], [ 116.117284, 39.77272 ], [ 116.117501, 39.773367 ], [ 116.118048, 39.773944 ], [ 116.118602, 39.774443 ], [ 116.118906, 39.775102 ], [ 116.119565, 39.776057 ], [ 116.120172, 39.777363 ], [ 116.120788, 39.778361 ], [ 116.121481, 39.779055 ], [ 116.12221, 39.779324 ], [ 116.122782, 39.779284 ], [ 116.12325, 39.778936 ], [ 116.123441, 39.778246 ], [ 116.123362, 39.777782 ], [ 116.123016, 39.777439 ], [ 116.123094, 39.776862 ], [ 116.123709, 39.776709 ], [ 116.124359, 39.776748 ], [ 116.124706, 39.777051 ], [ 116.125659, 39.778318 ], [ 116.126197, 39.778552 ], [ 116.126855, 39.778356 ], [ 116.127349, 39.778243 ], [ 116.127462, 39.77905 ], [ 116.128233, 39.778971 ], [ 116.128311, 39.778242 ], [ 116.128849, 39.778281 ], [ 116.128883, 39.778854 ], [ 116.130729, 39.778661 ], [ 116.132566, 39.77862 ], [ 116.13306, 39.77881 ], [ 116.132454, 39.779158 ], [ 116.131726, 39.77912 ], [ 116.130989, 39.779238 ], [ 116.130989, 39.780084 ], [ 116.131604, 39.780274 ], [ 116.134022, 39.780003 ], [ 116.134559, 39.780154 ], [ 116.134481, 39.780423 ], [ 116.133944, 39.780615 ], [ 116.132792, 39.780655 ], [ 116.132298, 39.780695 ], [ 116.131839, 39.781121 ], [ 116.131336, 39.781234 ], [ 116.130877, 39.781352 ], [ 116.13053, 39.781426 ], [ 116.130417, 39.78189 ], [ 116.130461, 39.782463 ], [ 116.130764, 39.782771 ], [ 116.131492, 39.783118 ], [ 116.131224, 39.7835 ], [ 116.13073, 39.783696 ], [ 116.129959, 39.783849 ], [ 116.128, 39.783851 ], [ 116.127887, 39.78481 ], [ 116.126163, 39.78462 ], [ 116.126163, 39.785198 ], [ 116.125392, 39.785159 ], [ 116.125054, 39.785351 ], [ 116.124586, 39.785351 ], [ 116.123779, 39.7852 ], [ 116.122982, 39.78497 ], [ 116.122176, 39.784893 ], [ 116.12202, 39.785813 ], [ 116.121786, 39.786008 ], [ 116.121595, 39.78574 ], [ 116.121673, 39.784932 ], [ 116.120754, 39.784855 ], [ 116.120407, 39.785202 ], [ 116.119792, 39.785893 ], [ 116.119679, 39.786691 ], [ 116.119792, 39.789656 ], [ 116.119645, 39.789925 ], [ 116.119177, 39.790043 ], [ 116.118527, 39.790004 ], [ 116.117954, 39.790004 ], [ 116.117798, 39.789783 ], [ 116.117373, 39.789506 ], [ 116.116723, 39.789506 ], [ 116.116073, 39.789853 ], [ 116.115535, 39.790275 ], [ 116.114963, 39.790661 ], [ 116.114538, 39.790696 ], [ 116.114235, 39.790505 ], [ 116.114269, 39.788622 ], [ 116.114, 39.788161 ], [ 116.113575, 39.788049 ], [ 116.113081, 39.788123 ], [ 116.113081, 39.788891 ], [ 116.106358, 39.788619 ], [ 116.106358, 39.787182 ], [ 116.107087, 39.787134 ], [ 116.107009, 39.785324 ], [ 116.102905, 39.785133 ], [ 116.102618, 39.785767 ], [ 116.101369, 39.785767 ], [ 116.101455, 39.782872 ], [ 116.101108, 39.782802 ], [ 116.100856, 39.783458 ], [ 116.100666, 39.784495 ], [ 116.100414, 39.78522 ], [ 116.100102, 39.785697 ], [ 116.099746, 39.78568 ], [ 116.099555, 39.785116 ], [ 116.099485, 39.784478 ], [ 116.099095, 39.784252 ], [ 116.097541, 39.784303 ], [ 116.097541, 39.783561 ], [ 116.098409, 39.783544 ], [ 116.098426, 39.783227 ], [ 116.098279, 39.782819 ], [ 116.097984, 39.782485 ], [ 116.09768, 39.78222 ], [ 116.097289, 39.782094 ], [ 116.096655, 39.782133 ], [ 116.095579, 39.782184 ], [ 116.095015, 39.782397 ], [ 116.094433, 39.782288 ], [ 116.09373, 39.781988 ], [ 116.092193, 39.78174 ], [ 116.091993, 39.783151 ], [ 116.09182, 39.783893 ], [ 116.091429, 39.784422 ], [ 116.091169, 39.784439 ], [ 116.090865, 39.784035 ], [ 116.090691, 39.783293 ], [ 116.090517, 39.782268 ], [ 116.090161, 39.78232 ], [ 116.089805, 39.782567 ], [ 116.089579, 39.782919 ], [ 116.089519, 39.783514 ], [ 116.089519, 39.784204 ], [ 116.089675, 39.78502 ], [ 116.089962, 39.786057 ], [ 116.090144, 39.787091 ], [ 116.089988, 39.788224 ], [ 116.089641, 39.789447 ], [ 116.089233, 39.790511 ], [ 116.088834, 39.791548 ], [ 116.088295, 39.792177 ], [ 116.088964, 39.793037 ], [ 116.08853, 39.793622 ], [ 116.088313, 39.794352 ], [ 116.0882, 39.795194 ], [ 116.088417, 39.796001 ], [ 116.088739, 39.796227 ], [ 116.088826, 39.796717 ], [ 116.088973, 39.797303 ], [ 116.089138, 39.79749 ], [ 116.08946, 39.797656 ], [ 116.08979, 39.797773 ], [ 116.089555, 39.798194 ], [ 116.08946, 39.798684 ], [ 116.089486, 39.799435 ], [ 116.088574, 39.799434 ], [ 116.088505, 39.7992 ], [ 116.088366, 39.799361 ], [ 116.088201, 39.799994 ], [ 116.088131, 39.800628 ], [ 116.088436, 39.801001 ], [ 116.08867, 39.801492 ], [ 116.088739, 39.802056 ], [ 116.088739, 39.802734 ], [ 116.088549, 39.803181 ], [ 116.088106, 39.803414 ], [ 116.087776, 39.803553 ], [ 116.087498, 39.803739 ], [ 116.087211, 39.804586 ], [ 116.08689, 39.807333 ], [ 116.086813, 39.811136 ], [ 116.086848, 39.814274 ], [ 116.086944, 39.814869 ], [ 116.087439, 39.815273 ], [ 116.088846, 39.815369 ], [ 116.089532, 39.81543 ], [ 116.089757, 39.815713 ], [ 116.089758, 39.816147 ], [ 116.089375, 39.816771 ], [ 116.088533, 39.817448 ], [ 116.087126, 39.817647 ], [ 116.086909, 39.817924 ], [ 116.08697, 39.818272 ], [ 116.087257, 39.818428 ], [ 116.089003, 39.818208 ], [ 116.088222, 39.826919 ], [ 116.089724, 39.827046 ], [ 116.089742, 39.829724 ], [ 116.088387, 39.831112 ], [ 116.086876, 39.831953 ], [ 116.085747, 39.832169 ], [ 116.084896, 39.831869 ], [ 116.084618, 39.831183 ], [ 116.084374, 39.828574 ], [ 116.084018, 39.828218 ], [ 116.083471, 39.828243 ], [ 116.083054, 39.82849 ], [ 116.082342, 39.831537 ], [ 116.081656, 39.832165 ], [ 116.08083, 39.832551 ], [ 116.080144, 39.832442 ], [ 116.079449, 39.832106 ], [ 116.078606, 39.831589 ], [ 116.077841, 39.832383 ], [ 116.07765, 39.832712 ], [ 116.078059, 39.833537 ], [ 116.078111, 39.834084 ], [ 116.077407, 39.83539 ], [ 116.076199, 39.837012 ], [ 116.074131, 39.838251 ], [ 116.072645, 39.838631 ], [ 116.071567, 39.838672 ], [ 116.070541, 39.838996 ], [ 116.069802, 39.839881 ], [ 116.068985, 39.840791 ], [ 116.067768, 39.841301 ], [ 116.065811, 39.841537 ], [ 116.062716, 39.841527 ], [ 116.061498, 39.841898 ], [ 116.059454, 39.843517 ], [ 116.054644, 39.845956 ], [ 116.056446, 39.849189 ], [ 116.056559, 39.850956 ], [ 116.058003, 39.852113 ], [ 116.060317, 39.853316 ], [ 116.062326, 39.852364 ], [ 116.070986, 39.853712 ], [ 116.070188, 39.860425 ], [ 116.068797, 39.86377 ], [ 116.067354, 39.865764 ], [ 116.070449, 39.868447 ], [ 116.074196, 39.869707 ], [ 116.078324, 39.870311 ], [ 116.082573, 39.868718 ], [ 116.084058, 39.867218 ], [ 116.085335, 39.866672 ], [ 116.087176, 39.866157 ], [ 116.091006, 39.866472 ], [ 116.095834, 39.86904 ], [ 116.100503, 39.867631 ], [ 116.101771, 39.867692 ], [ 116.104148, 39.868838 ], [ 116.103593, 39.87047 ], [ 116.105433, 39.87254 ], [ 116.106309, 39.872883 ], [ 116.108053, 39.87234 ], [ 116.112251, 39.873242 ], [ 116.119735, 39.877479 ], [ 116.124269, 39.877884 ], [ 116.125907, 39.877948 ], [ 116.126522, 39.878212 ], [ 116.127933, 39.879049 ], [ 116.127957, 39.879035 ], [ 116.127966, 39.879068 ], [ 116.130124, 39.880349 ], [ 116.130154, 39.880368 ], [ 116.130193, 39.88039 ], [ 116.131679, 39.881272 ], [ 116.140741, 39.884242 ], [ 116.147609, 39.885283 ], [ 116.149055, 39.885198 ], [ 116.150242, 39.88409 ], [ 116.150977, 39.884054 ], [ 116.154104, 39.886662 ], [ 116.153645, 39.888768 ], [ 116.154286, 39.888858 ], [ 116.154883, 39.888952 ], [ 116.15613, 39.889024 ], [ 116.157273, 39.88877 ], [ 116.159913, 39.887616 ], [ 116.161333, 39.887088 ], [ 116.163358, 39.886889 ], [ 116.164406, 39.887282 ], [ 116.16577, 39.887951 ], [ 116.16636, 39.888306 ], [ 116.166917, 39.888701 ], [ 116.167029, 39.888757 ] ] ] } }
]
}
